Explorando las características musicales en Spotify
…
resultados_tree_entrenamiento<- train |> select(popularity) |>
  bind_cols(predict(modelo_arbol,train)) |>
  rename(.pred_tree=.pred)

resultados_tree_entrenamiento |> head(50)

# A tibble: 50 × 2
   popularity .pred_tree
        <dbl>      <dbl>
 1          0       37.4
 2          0       37.4
 3          1       37.4
 4          0       37.4
 5          0       37.4
 6          0       37.4
 7          0       37.4
 8          0       37.4
 9          0       37.4
10          0       37.4
# ℹ 40 more rows
…
#Vemos predicciones vs popularidad real
predicciones <- predict(popularidad_rf, new_data = test) |>
  bind_cols(test)
predicciones

# A tibble: 17,950 × 17
   .pred popularity duration_ms explicit danceability energy   key loudness
   <dbl>      <dbl>       <dbl> <fct>           <dbl>  <dbl> <dbl>    <dbl>
 1 34.0          73      230666 FALSE           0.676 0.461      1    -6.75
 2 38.6          71      201933 FALSE           0.266 0.0596     0   -18.5 
 3 44.0          67      260186 FALSE           0.717 0.32       3    -8.39
 4 63.4          70      229400 FALSE           0.407 0.147      2    -8.82
 5  2.00          0      131760 FALSE           0.62  0.309      5    -9.21
 6  9.37          0      259558 FALSE           0.296 0.206      0   -11.8 
 7  9.20          0      230098 FALSE           0.568 0.686      1    -6.64
 8 45.9          60      241119 FALSE           0.494 0.652      6    -5.86
 9 36.6          75      254400 FALSE           0.375 0.457      3    -7.02
10 42.9          64      222146 FALSE           0.705 0.347      2    -8.25
# ℹ 17,940 more rows
# ℹ 9 more variables: mode <dbl>, speechiness <dbl>, acousticness <dbl>,
#   instrumentalness <dbl>, liveness <dbl>, valence <dbl>, tempo <dbl>,
#   time_signature <dbl>, track_genre <fct>
…
